<svg xmlns="http://www.w3.org/2000/svg" width="480" height="231" class="">
    <defs>
        <style/>
    </defs>
    <style>@keyframes animation-gauge{0%{stroke-dasharray:0 329}}@keyframes animation-rainbow{0%,to{color:#7f00ff;fill:#7f00ff}14%{color:#a933ff;fill:#a933ff}29%{color:#007fff;fill:#007fff}43%{color:#00ff7f;fill:#00ff7f}57%{color:#ff0;fill:#ff0}71%{color:#ff7f00;fill:#ff7f00}86%{color:red;fill:red}}svg{font-family:-apple-system,BlinkMacSystemFont,Segoe UI,Helvetica,Arial,sans-serif,Apple Color Emoji,Segoe UI Emoji;color:#777}h2,h3{margin:8px 0 2px;padding:0;color:#0366d6;font-weight:400}h2 svg,h3 svg{fill:currentColor}h2{font-size:16px}h3,svg{font-size:14px}section&gt;.field{margin-left:5px;margin-right:5px}.field{display:flex;align-items:center;margin-bottom:2px;white-space:nowrap}.field svg{margin:0 8px;fill:#959da5;flex-shrink:0}.row{display:flex;flex-wrap:wrap}.horizontal .field,.row section{flex:1 1 0}.column{display:flex;flex-direction:column;align-items:center}.horizontal{justify-content:space-around}svg.bar{margin:4px 0}.chartist .ct-post{fill:rgba(127,127,127,.8)!important;color:rgba(127,127,127,.8)!important;font-size:9px;text-anchor:middle}.chart{padding:0 8px}.chart-bars{display:flex;justify-content:space-between;align-items:flex-end;width:100%;margin:8px 0 4px;flex-grow:1;min-height:70px}.chart-bars .entry{flex-grow:1;display:flex;flex-direction:column;align-items:center;font-size:10px;color:#666}.chart-bars .entry .value{font-size:6px}.chart-bars .bar{width:7px;background-color:var(--color-calendar-graph-day-bg);border:1px solid var(--color-calendar-graph-day-border);border-radius:5px}.chart-bars.horizontal{flex-direction:column;height:100%}.chart-bars.horizontal .entry{align-items:center;flex-direction:row;width:100%;min-height:1rem}.activity .field,.chart-bars.horizontal .entry .name{overflow:hidden;text-overflow:ellipsis;white-space:nowrap}.chart-bars.horizontal .entry .name{flex-shrink:0;text-align:right;width:34%}.chart-bars.horizontal .bar{height:7px;width:auto;margin:0 6px}.activity{margin-bottom:12px}.activity .field{width:100%;max-width:450px;margin-bottom:0}:root{--color-calendar-graph-day-bg:#ebedf0;--color-calendar-graph-day-border:rgba(27,31,35,0.06);--color-calendar-graph-day-L1-bg:#9be9a8;--color-calendar-graph-day-L2-bg:#40c463;--color-calendar-graph-day-L3-bg:#30a14e;--color-calendar-graph-day-L4-bg:#216e39;--color-calendar-halloween-graph-day-L1-bg:#ffee4a;--color-calendar-halloween-graph-day-L2-bg:#ffc501;--color-calendar-halloween-graph-day-L3-bg:#fe9600;--color-calendar-halloween-graph-day-L4-bg:#03001c;--color-calendar-graph-day-L4-border:rgba(27,31,35,0.06);--color-calendar-graph-day-L3-border:rgba(27,31,35,0.06);--color-calendar-graph-day-L2-border:rgba(27,31,35,0.06);--color-calendar-graph-day-L1-border:rgba(27,31,35,0.06)}#metrics-end{width:100%}</style>
    <style/>
    <foreignObject x="0" y="0" width="100%" height="100%">
        <div xmlns="http://www.w3.org/1999/xhtml" xmlns:xlink="http://www.w3.org/1999/xlink" class="items-wrapper">
            <section>
                <h2 class="field">
                    <svg xmlns="http://www.w3.org/2000/svg" viewBox="0 0 16 16" width="16" height="16">
                        <path fill-rule="evenodd" d="M2.75 1a.75.75 0 000 1.5h.75v1.25a4.75 4.75 0 001.9 3.8l.333.25c.134.1.134.3 0 .4l-.333.25a4.75 4.75 0 00-1.9 3.8v1.25h-.75a.75.75 0 000 1.5h10.5a.75.75 0 000-1.5h-.75v-1.25a4.75 4.75 0 00-1.9-3.8l-.333-.25a.25.25 0 010-.4l.333-.25a4.75 4.75 0 001.9-3.8V2.5h.75a.75.75 0 000-1.5H2.75zM11 2.5H5v1.25a3.25 3.25 0 001.3 2.6l.333.25c.934.7.934 2.1 0 2.8l-.333.25a3.25 3.25 0 00-1.3 2.6v1.25h6v-1.25a3.25 3.25 0 00-1.3-2.6l-.333-.25a1.75 1.75 0 010-2.8l.333-.25a3.25 3.25 0 001.3-2.6V2.5z"/>
                    </svg>
                    WakaTime (over last week)
                </h2>
                <div class="row">
                    <section class="largeable-column-fields">
                        <div class="field">
                            <svg xmlns="http://www.w3.org/2000/svg" viewBox="0 0 16 16" width="16" height="16">
                                <path fill-rule="evenodd" d="M1.643 3.143L.427 1.927A.25.25 0 000 2.104V5.75c0 .138.112.25.25.25h3.646a.25.25 0 00.177-.427L2.715 4.215a6.5 6.5 0 11-1.18 4.458.75.75 0 10-1.493.154 8.001 8.001 0 101.6-5.684zM7.75 4a.75.75 0 01.75.75v2.992l2.028.812a.75.75 0 01-.557 1.392l-2.5-1A.75.75 0 017 8.25v-3.5A.75.75 0 017.75 4z"/>
                            </svg>
                            ~19 coding hours recorded
                        </div>
                        <div class="field">
                            <svg xmlns="http://www.w3.org/2000/svg" viewBox="0 0 16 16" width="16" height="16">
                                <path fill-rule="evenodd" d="M1.5 2.75a.25.25 0 01.25-.25h12.5a.25.25 0 01.25.25v8.5a.25.25 0 01-.25.25h-6.5a.75.75 0 00-.53.22L4.5 14.44v-2.19a.75.75 0 00-.75-.75h-2a.25.25 0 01-.25-.25v-8.5zM1.75 1A1.75 1.75 0 000 2.75v8.5C0 12.216.784 13 1.75 13H3v1.543a1.457 1.457 0 002.487 1.03L8.061 13h6.189A1.75 1.75 0 0016 11.25v-8.5A1.75 1.75 0 0014.25 1H1.75zm5.03 3.47a.75.75 0 010 1.06L5.31 7l1.47 1.47a.75.75 0 01-1.06 1.06l-2-2a.75.75 0 010-1.06l2-2a.75.75 0 011.06 0zm2.44 0a.75.75 0 000 1.06L10.69 7 9.22 8.47a.75.75 0 001.06 1.06l2-2a.75.75 0 000-1.06l-2-2a.75.75 0 00-1.06 0z"/>
                            </svg>
                            Mostly coding in TypeScript
                        </div>
                    </section>
                    <section class="largeable-column-fields">
                        <div class="field">
                            <svg xmlns="http://www.w3.org/2000/svg" viewBox="0 0 16 16" width="16" height="16">
                                <path fill-rule="evenodd" d="M6 2a.75.75 0 01.696.471L10 10.731l1.304-3.26A.75.75 0 0112 7h3.25a.75.75 0 010 1.5h-2.742l-1.812 4.528a.75.75 0 01-1.392 0L6 4.77 4.696 8.03A.75.75 0 014 8.5H.75a.75.75 0 010-1.5h2.742l1.812-4.529A.75.75 0 016 2z"/>
                            </svg>
                            ~4 hours of coding per day
                        </div>
                        <div class="field">
                            <svg xmlns="http://www.w3.org/2000/svg" viewBox="0 0 16 16" width="16" height="16">
                                <path fill-rule="evenodd" d="M0 2.75C0 1.784.784 1 1.75 1h12.5c.966 0 1.75.784 1.75 1.75v10.5A1.75 1.75 0 0114.25 15H1.75A1.75 1.75 0 010 13.25V2.75zm1.75-.25a.25.25 0 00-.25.25v10.5c0 .138.112.25.25.25h12.5a.25.25 0 00.25-.25V2.75a.25.25 0 00-.25-.25H1.75zM7.25 8a.75.75 0 01-.22.53l-2.25 2.25a.75.75 0 11-1.06-1.06L5.44 8 3.72 6.28a.75.75 0 111.06-1.06l2.25 2.25c.141.14.22.331.22.53zm1.5 1.5a.75.75 0 000 1.5h3a.75.75 0 000-1.5h-3z"/>
                            </svg>
                            Coding with VS Code
                        </div>
                        <div class="field">
                            <svg xmlns="http://www.w3.org/2000/svg" viewBox="0 0 16 16" width="16" height="16">
                                <path fill-rule="evenodd" d="M6.5.75a.75.75 0 00-1.5 0V2H3.75A1.75 1.75 0 002 3.75V5H.75a.75.75 0 000 1.5H2v3H.75a.75.75 0 000 1.5H2v1.25c0 .966.784 1.75 1.75 1.75H5v1.25a.75.75 0 001.5 0V14h3v1.25a.75.75 0 001.5 0V14h1.25A1.75 1.75 0 0014 12.25V11h1.25a.75.75 0 000-1.5H14v-3h1.25a.75.75 0 000-1.5H14V3.75A1.75 1.75 0 0012.25 2H11V.75a.75.75 0 00-1.5 0V2h-3V.75zm5.75 11.75h-8.5a.25.25 0 01-.25-.25v-8.5a.25.25 0 01.25-.25h8.5a.25.25 0 01.25.25v8.5a.25.25 0 01-.25.25zM5.75 5a.75.75 0 00-.75.75v4.5c0 .414.336.75.75.75h4.5a.75.75 0 00.75-.75v-4.5a.75.75 0 00-.75-.75h-4.5zm.75 4.5v-3h3v3h-3z"/>
                            </svg>
                            Using Linux
                        </div>
                    </section>
                </div>
                <div class="row">
                    <section class="column chart">
                        <h3>Language activity</h3>
                        <div class="chart-bars horizontal">
                            <div class="entry">
                                <span class="name">TypeScript</span>
                                <div class="bar" style="width: 63.815999999999995%; background-color: var(--color-calendar-graph-day-L4-bg)"></div>
                                <span class="value">80%</span>
                            </div>
                            <div class="entry">
                                <span class="name">C#</span>
                                <div class="bar" style="width: 6.328%; background-color: var(--color-calendar-graph-day-L1-bg)"></div>
                                <span class="value">8%</span>
                            </div>
                            <div class="entry">
                                <span class="name">C++</span>
                                <div class="bar" style="width: 3.2479999999999998%; background-color: var(--color-calendar-graph-day-L1-bg)"></div>
                                <span class="value">4%</span>
                            </div>
                            <div class="entry">
                                <span class="name">JSON</span>
                                <div class="bar" style="width: 2.768%; background-color: var(--color-calendar-graph-day-L1-bg)"></div>
                                <span class="value">3%</span>
                            </div>
                            <div class="entry">
                                <span class="name">Other</span>
                                <div class="bar" style="width: 1.416%; background-color: var(--color-calendar-graph-day-L1-bg)"></div>
                                <span class="value">2%</span>
                            </div>
                        </div>
                    </section>
                </div>
            </section>
        </div>
        <div xmlns="http://www.w3.org/1999/xhtml" id="metrics-end"></div>
    </foreignObject>
</svg>